module meeting-helper

go 1.17

require (
	fyne.io/fyne/v2 v2.1.2
	github.com/faiface/beep v1.1.0
	github.com/icza/gox v0.0.0-20210726201659-cd40a3f8d324
	golang.org/x/image v0.0.0-20211028202545-6944b10bf410
)

require (
	github.com/davecgh/go-spew v1.1.1 // indirect
	github.com/fredbi/uri v0.0.0-20181227131451-3dcfdacbaaf3 // indirect
	github.com/fsnotify/fsnotify v1.4.9 // indirect
	github.com/go-gl/gl v0.0.0-20210813123233-e4099ee2221f // indirect
	github.com/go-gl/glfw/v3.3/glfw v0.0.0-20211024062804-40e447a793be // indirect
	github.com/godbus/dbus/v5 v5.0.4 // indirect
	github.com/goki/freetype v0.0.0-20181231101311-fa8a33aabaff // indirect
	github.com/hajimehoshi/oto v0.7.1 // indirect
	github.com/pkg/errors v0.9.1 // indirect
	github.com/pmezard/go-difflib v1.0.0 // indirect
	github.com/srwiley/oksvg v0.0.0-20200311192757-870daf9aa564 // indirect
	github.com/srwiley/rasterx v0.0.0-20200120212402-85cb7272f5e9 // indirect
	github.com/stretchr/testify v1.5.1 // indirect
	github.com/yuin/goldmark v1.3.8 // indirect
	golang.org/x/exp v0.0.0-20190306152737-a1d7652674e8 // indirect
	golang.org/x/mobile v0.0.0-20190415191353-3e0bab5405d6 // indirect
	golang.org/x/net v0.0.0-20210405180319-a5a99cb37ef4 // indirect
	golang.org/x/sys v0.0.0-20210630005230-0f9fa26af87c // indirect
	golang.org/x/text v0.3.6 // indirect
	gopkg.in/yaml.v2 v2.2.8 // indirect
)
